-- Merging decision tree log ---
manifest
ADDED from /Users/diegosouza/workspace/PERSONAL/ANDROID/Android/NetworkConnect/Application/src/main/AndroidManifest.xml:20:1-47:12
	package
		ADDED from /Users/diegosouza/workspace/PERSONAL/ANDROID/Android/NetworkConnect/Application/src/main/AndroidManifest.xml:22:5-49
	android:versionName
		ADDED from /Users/diegosouza/workspace/PERSONAL/ANDROID/Android/NetworkConnect/Application/src/main/AndroidManifest.xml:24:5-30
		INJECTED from /Users/diegosouza/workspace/PERSONAL/ANDROID/Android/NetworkConnect/Application/src/main/AndroidManifest.xml
		INJECTED from /Users/diegosouza/workspace/PERSONAL/ANDROID/Android/NetworkConnect/Application/src/main/AndroidManifest.xml
	android:versionCode
		ADDED from /Users/diegosouza/workspace/PERSONAL/ANDROID/Android/NetworkConnect/Application/src/main/AndroidManifest.xml:23:5-28
		INJECTED from /Users/diegosouza/workspace/PERSONAL/ANDROID/Android/NetworkConnect/Application/src/main/AndroidManifest.xml
		INJECTED from /Users/diegosouza/workspace/PERSONAL/ANDROID/Android/NetworkConnect/Application/src/main/AndroidManifest.xml
	xmlns:android
		ADDED from /Users/diegosouza/workspace/PERSONAL/ANDROID/Android/NetworkConnect/Application/src/main/AndroidManifest.xml:21:5-63
uses-permission#android.permission.INTERNET
ADDED from /Users/diegosouza/workspace/PERSONAL/ANDROID/Android/NetworkConnect/Application/src/main/AndroidManifest.xml:27:5-67
	android:name
		ADDED from /Users/diegosouza/workspace/PERSONAL/ANDROID/Android/NetworkConnect/Application/src/main/AndroidManifest.xml:27:22-64
uses-permission#android.permission.ACCESS_NETWORK_STATE
ADDED from /Users/diegosouza/workspace/PERSONAL/ANDROID/Android/NetworkConnect/Application/src/main/AndroidManifest.xml:28:5-79
	android:name
		ADDED from /Users/diegosouza/workspace/PERSONAL/ANDROID/Android/NetworkConnect/Application/src/main/AndroidManifest.xml:28:22-76
application
ADDED from /Users/diegosouza/workspace/PERSONAL/ANDROID/Android/NetworkConnect/Application/src/main/AndroidManifest.xml:30:5-46:19
MERGED from [com.android.support:gridlayout-v7:25.3.1] /Users/diegosouza/.android/build-cache/c0ca078783fbfc500e31ffec32bfe996389faaa6/output/AndroidManifest.xml:26:5-20
MERGED from [com.android.support:cardview-v7:25.3.1] /Users/diegosouza/.android/build-cache/6dbc5933e9ced08dbbd070953919858d6c963c65/output/AndroidManifest.xml:26:5-20
MERGED from [com.android.support:appcompat-v7:25.3.1] /Users/diegosouza/.android/build-cache/4fc3ccb5a265818321f44bc5a75040938e8c2038/output/AndroidManifest.xml:29:5-20
MERGED from [com.android.support:support-v4:25.3.1] /Users/diegosouza/.android/build-cache/ab64990286cf3a8a52e99ea48c599df9223adf63/output/AndroidManifest.xml:29:5-20
MERGED from [com.android.support:support-fragment:25.3.1] /Users/diegosouza/.android/build-cache/afa9152e52064efe7d76e301e945fddf7116b658/output/AndroidManifest.xml:29:5-20
MERGED from [com.android.support:support-media-compat:25.3.1] /Users/diegosouza/.android/build-cache/d8d21a5d34f563b0e133e66395da87cb3524edd3/output/AndroidManifest.xml:29:5-20
MERGED from [com.android.support:support-core-ui:25.3.1] /Users/diegosouza/.android/build-cache/8a0121ad830a0fad1803487df682e446974b1df2/output/AndroidManifest.xml:29:5-20
MERGED from [com.android.support:support-core-utils:25.3.1] /Users/diegosouza/.android/build-cache/395c455483ec89e293ec7e9343a2344bcb30cf1b/output/AndroidManifest.xml:29:5-20
MERGED from [com.android.support:animated-vector-drawable:25.3.1] /Users/diegosouza/.android/build-cache/766b7191ff6c45c7eed2a764321df2bf045c69c4/output/AndroidManifest.xml:26:5-20
MERGED from [com.android.support:support-vector-drawable:25.3.1] /Users/diegosouza/.android/build-cache/71ac0c162dfc4239c389ea15c97fb96e6b3c700c/output/AndroidManifest.xml:26:5-20
MERGED from [com.android.support:support-compat:25.3.1] /Users/diegosouza/.android/build-cache/470b80e8997a8e21aab03b0704e0fa84bb80946a/output/AndroidManifest.xml:29:5-20
	android:label
		ADDED from /Users/diegosouza/workspace/PERSONAL/ANDROID/Android/NetworkConnect/Application/src/main/AndroidManifest.xml:31:9-41
	android:allowBackup
		ADDED from /Users/diegosouza/workspace/PERSONAL/ANDROID/Android/NetworkConnect/Application/src/main/AndroidManifest.xml:34:9-35
	android:icon
		ADDED from /Users/diegosouza/workspace/PERSONAL/ANDROID/Android/NetworkConnect/Application/src/main/AndroidManifest.xml:32:9-45
	android:networkSecurityConfig
		ADDED from /Users/diegosouza/workspace/PERSONAL/ANDROID/Android/NetworkConnect/Application/src/main/AndroidManifest.xml:35:9-69
	android:theme
		ADDED from /Users/diegosouza/workspace/PERSONAL/ANDROID/Android/NetworkConnect/Application/src/main/AndroidManifest.xml:33:9-44
activity#com.example.android.networkconnect.MainActivity
ADDED from /Users/diegosouza/workspace/PERSONAL/ANDROID/Android/NetworkConnect/Application/src/main/AndroidManifest.xml:36:9-45:20
	android:label
		ADDED from /Users/diegosouza/workspace/PERSONAL/ANDROID/Android/NetworkConnect/Application/src/main/AndroidManifest.xml:38:13-45
	android:uiOptions
		ADDED from /Users/diegosouza/workspace/PERSONAL/ANDROID/Android/NetworkConnect/Application/src/main/AndroidManifest.xml:39:13-57
	android:name
		ADDED from /Users/diegosouza/workspace/PERSONAL/ANDROID/Android/NetworkConnect/Application/src/main/AndroidManifest.xml:37:13-75
intent-filter#android.intent.action.MAIN+android.intent.category.LAUNCHER
ADDED from /Users/diegosouza/workspace/PERSONAL/ANDROID/Android/NetworkConnect/Application/src/main/AndroidManifest.xml:41:13-44:29
action#android.intent.action.MAIN
ADDED from /Users/diegosouza/workspace/PERSONAL/ANDROID/Android/NetworkConnect/Application/src/main/AndroidManifest.xml:42:17-69
	android:name
		ADDED from /Users/diegosouza/workspace/PERSONAL/ANDROID/Android/NetworkConnect/Application/src/main/AndroidManifest.xml:42:25-66
category#android.intent.category.LAUNCHER
ADDED from /Users/diegosouza/workspace/PERSONAL/ANDROID/Android/NetworkConnect/Application/src/main/AndroidManifest.xml:43:17-77
	android:name
		ADDED from /Users/diegosouza/workspace/PERSONAL/ANDROID/Android/NetworkConnect/Application/src/main/AndroidManifest.xml:43:27-74
uses-sdk
INJECTED from /Users/diegosouza/workspace/PERSONAL/ANDROID/Android/NetworkConnect/Application/src/main/AndroidManifest.xml reason: use-sdk injection requested
MERGED from [com.android.support:gridlayout-v7:25.3.1] /Users/diegosouza/.android/build-cache/c0ca078783fbfc500e31ffec32bfe996389faaa6/output/AndroidManifest.xml:20:5-43
MERGED from [com.android.support:cardview-v7:25.3.1] /Users/diegosouza/.android/build-cache/6dbc5933e9ced08dbbd070953919858d6c963c65/output/AndroidManifest.xml:20:5-43
MERGED from [com.android.support:appcompat-v7:25.3.1] /Users/diegosouza/.android/build-cache/4fc3ccb5a265818321f44bc5a75040938e8c2038/output/AndroidManifest.xml:21:5-23:78
MERGED from [com.android.support:support-v4:25.3.1] /Users/diegosouza/.android/build-cache/ab64990286cf3a8a52e99ea48c599df9223adf63/output/AndroidManifest.xml:21:5-23:54
MERGED from [com.android.support:support-fragment:25.3.1] /Users/diegosouza/.android/build-cache/afa9152e52064efe7d76e301e945fddf7116b658/output/AndroidManifest.xml:21:5-23:60
MERGED from [com.android.support:support-media-compat:25.3.1] /Users/diegosouza/.android/build-cache/d8d21a5d34f563b0e133e66395da87cb3524edd3/output/AndroidManifest.xml:21:5-23:63
MERGED from [com.android.support:support-core-ui:25.3.1] /Users/diegosouza/.android/build-cache/8a0121ad830a0fad1803487df682e446974b1df2/output/AndroidManifest.xml:21:5-23:58
MERGED from [com.android.support:support-core-utils:25.3.1] /Users/diegosouza/.android/build-cache/395c455483ec89e293ec7e9343a2344bcb30cf1b/output/AndroidManifest.xml:21:5-23:61
MERGED from [com.android.support:animated-vector-drawable:25.3.1] /Users/diegosouza/.android/build-cache/766b7191ff6c45c7eed2a764321df2bf045c69c4/output/AndroidManifest.xml:20:5-44
MERGED from [com.android.support:support-vector-drawable:25.3.1] /Users/diegosouza/.android/build-cache/71ac0c162dfc4239c389ea15c97fb96e6b3c700c/output/AndroidManifest.xml:20:5-43
MERGED from [com.android.support:support-compat:25.3.1] /Users/diegosouza/.android/build-cache/470b80e8997a8e21aab03b0704e0fa84bb80946a/output/AndroidManifest.xml:21:5-23:58
	tools:overrideLibrary
		ADDED from [com.android.support:appcompat-v7:25.3.1] /Users/diegosouza/.android/build-cache/4fc3ccb5a265818321f44bc5a75040938e8c2038/output/AndroidManifest.xml:23:9-75
	android:targetSdkVersion
		INJECTED from /Users/diegosouza/workspace/PERSONAL/ANDROID/Android/NetworkConnect/Application/src/main/AndroidManifest.xml
		INJECTED from /Users/diegosouza/workspace/PERSONAL/ANDROID/Android/NetworkConnect/Application/src/main/AndroidManifest.xml
	android:minSdkVersion
		INJECTED from /Users/diegosouza/workspace/PERSONAL/ANDROID/Android/NetworkConnect/Application/src/main/AndroidManifest.xml
		INJECTED from /Users/diegosouza/workspace/PERSONAL/ANDROID/Android/NetworkConnect/Application/src/main/AndroidManifest.xml
meta-data#android.support.VERSION
ADDED from [com.android.support:gridlayout-v7:25.3.1] /Users/diegosouza/.android/build-cache/c0ca078783fbfc500e31ffec32bfe996389faaa6/output/AndroidManifest.xml:22:5-24:34
MERGED from [com.android.support:cardview-v7:25.3.1] /Users/diegosouza/.android/build-cache/6dbc5933e9ced08dbbd070953919858d6c963c65/output/AndroidManifest.xml:22:5-24:34
MERGED from [com.android.support:appcompat-v7:25.3.1] /Users/diegosouza/.android/build-cache/4fc3ccb5a265818321f44bc5a75040938e8c2038/output/AndroidManifest.xml:25:5-27:34
MERGED from [com.android.support:support-v4:25.3.1] /Users/diegosouza/.android/build-cache/ab64990286cf3a8a52e99ea48c599df9223adf63/output/AndroidManifest.xml:25:5-27:34
MERGED from [com.android.support:support-fragment:25.3.1] /Users/diegosouza/.android/build-cache/afa9152e52064efe7d76e301e945fddf7116b658/output/AndroidManifest.xml:25:5-27:34
MERGED from [com.android.support:support-media-compat:25.3.1] /Users/diegosouza/.android/build-cache/d8d21a5d34f563b0e133e66395da87cb3524edd3/output/AndroidManifest.xml:25:5-27:34
MERGED from [com.android.support:support-core-ui:25.3.1] /Users/diegosouza/.android/build-cache/8a0121ad830a0fad1803487df682e446974b1df2/output/AndroidManifest.xml:25:5-27:34
MERGED from [com.android.support:support-core-utils:25.3.1] /Users/diegosouza/.android/build-cache/395c455483ec89e293ec7e9343a2344bcb30cf1b/output/AndroidManifest.xml:25:5-27:34
MERGED from [com.android.support:animated-vector-drawable:25.3.1] /Users/diegosouza/.android/build-cache/766b7191ff6c45c7eed2a764321df2bf045c69c4/output/AndroidManifest.xml:22:5-24:34
MERGED from [com.android.support:support-vector-drawable:25.3.1] /Users/diegosouza/.android/build-cache/71ac0c162dfc4239c389ea15c97fb96e6b3c700c/output/AndroidManifest.xml:22:5-24:34
MERGED from [com.android.support:support-compat:25.3.1] /Users/diegosouza/.android/build-cache/470b80e8997a8e21aab03b0704e0fa84bb80946a/output/AndroidManifest.xml:25:5-27:34
	android:value
		ADDED from [com.android.support:gridlayout-v7:25.3.1] /Users/diegosouza/.android/build-cache/c0ca078783fbfc500e31ffec32bfe996389faaa6/output/AndroidManifest.xml:24:9-31
	android:name
		ADDED from [com.android.support:gridlayout-v7:25.3.1] /Users/diegosouza/.android/build-cache/c0ca078783fbfc500e31ffec32bfe996389faaa6/output/AndroidManifest.xml:23:9-47
